{
  "sitecore": {
    "context": {
      "pageEditing": false,
      "site": {
        "name": "JssDisconnectedLayoutService"
      },
      "pageState": "normal",
      "language": "en"
    },
    "route": {
      "databaseName": "available-in-connected-mode",
      "deviceId": "available-in-connected-mode",
      "itemId": "available-in-connected-mode",
      "itemLanguage": "en",
      "itemVersion": 1,
      "layoutId": "available-in-connected-mode",
      "templateId": "available-in-connected-mode",
      "templateName": "available-in-connected-mode",
      "name": "graphql",
      "fields": {
        "pageTitle": {
          "value": "GraphQL | Sitecore JSS"
        }
      },
      "placeholders": {
        "jss-main": [
          {
            "uid": "{FB82986A-A6CD-53FD-AA1D-BC5036B6979B}",
            "componentName": "ContentBlock",
            "dataSource": "available-in-connected-mode",
            "params": {},
            "fields": {
              "heading": {
                "value": "Using GraphQL with JSS"
              },
              "content": {
                "value": "<p>This is a live example of using Integrated GraphQL and Connected GraphQL with a JSS app.\nFor more information on GraphQL use in JSS, please see <a href=\"https://jss.sitecore.net\" target=\"_blank\" rel=\"noopener noreferrer\">the documentation</a>.</p>\n"
              }
            }
          },
          {
            "uid": "{A9FBC7CC-F00B-58A2-873B-4C70C726476C}",
            "componentName": "GraphQL-Layout",
            "dataSource": "available-in-connected-mode",
            "params": {},
            "fields": {},
            "placeholders": {
              "jss-graphql-layout": [
                {
                  "uid": "{B6BBD1E2-C0B2-5C34-ADD3-858333393BFD}",
                  "componentName": "GraphQL-IntegratedDemo",
                  "dataSource": "available-in-connected-mode",
                  "params": {},
                  "fields": {
                    "sample1": {
                      "value": "Hello integrated GraphQL world!"
                    },
                    "sample2": {
                      "value": {
                        "href": "https://www.sitecore.com",
                        "target": "_blank",
                        "text": "GraphQL lets you get structured field data too"
                      }
                    }
                  }
                },
                {
                  "uid": "{4E86EC75-DCF5-57A7-B43C-150ADD6BD099}",
                  "componentName": "GraphQL-ConnectedDemo",
                  "dataSource": "available-in-connected-mode",
                  "params": {},
                  "fields": {
                    "sample1": {
                      "value": "Hello connected GraphQL world!"
                    },
                    "sample2": {
                      "value": {
                        "href": "https://www.sitecore.com",
                        "target": "_blank",
                        "text": "GraphQL lets you get structured field data too"
                      }
                    }
                  }
                },
                {
                  "uid": "{EC633755-A803-521F-A378-A2CE203B80EC}",
                  "componentName": "GraphQL-SSRDemo",
                  "dataSource": "available-in-connected-mode",
                  "params": {},
                  "fields": {
                    "sample1": {
                      "value": "Hello connected GraphQL world!"
                    },
                    "sample2": {
                      "value": {
                        "href": "https://www.sitecore.com",
                        "target": "_blank",
                        "text": "GraphQL lets you get structured field data too"
                      }
                    }
                  }
                }
              ]
            }
          }
        ],
        "jss-graphql-layout": []
      }
    }
  }
}
